%YAML 1.1
%TAG !u! tag:unity3d.com,2011:
--- !u!1045 &1
EditorBuildSettings:
  m_ObjectHideFlags: 0
  serializedVersion: 2
  m_Scenes:
  - enabled: 1
    path: Assets/Scenes/MainMenu.unity
    guid: 167725ba508ec194691cdb7542b7c804
  - enabled: 1
    path: Assets/Scenes/SimpleRoom.unity
    guid: c51b366b471e443cc9a0142684974577
  - enabled: 1
    path: Assets/Scenes/Room2.unity
    guid: 23f72600c762540e2a20e315045bb085
  m_configObjects: {}
