mtllib Dirt_Stain.mtl
o Dirt_Stain.obj
v 0.071909 -0.000885 0.000000
v 0.060983 0.012723 -0.000040
v 0.062275 -0.000885 0.035954
v 0.052532 0.012723 0.031499
v 0.035954 -0.000885 0.062275
v 0.029444 0.012723 0.054587
v 0.000000 -0.000885 0.071909
v -0.002095 0.012723 0.063038
v -0.035352 -0.000885 0.059020
v -0.033106 0.012723 0.051732
v -0.068083 -0.000885 0.055859
v -0.061817 0.012723 0.048959
v -0.106035 -0.000885 -0.010882
v -0.065173 0.020729 -0.000040
v -0.096517 -0.000885 -0.046403
v -0.056723 0.020729 -0.031579
v -0.037568 -0.000885 -0.072440
v -0.035050 0.012723 -0.063584
v 0.000000 -0.000885 -0.071909
v -0.002095 0.012723 -0.063118
v 0.035954 -0.000885 -0.062275
v 0.029444 0.012723 -0.054667
v 0.062275 -0.000885 -0.035954
v 0.052532 0.012723 -0.031579
v 0.013121 0.022290 -0.000725
v -0.092928 -0.000885 0.032763
v -0.083611 0.012723 0.028699
v -0.095108 0.012723 -0.009586
v -0.086759 0.012723 -0.040744
v -0.063811 0.012723 -0.063693
v -0.070355 -0.000885 -0.072564
vn 0.779745 0.626097 -0.000077
vn 0.515972 0.856606 -0.000145
vn 0.680688 0.616798 0.395253
vn 0.447876 0.855925 0.258458
vn 0.401223 0.588527 0.701895
vn 0.261558 0.851932 0.453650
vn -0.043396 0.540906 0.839963
vn -0.025494 0.844035 0.535681
vn -0.192757 0.487826 0.851394
vn -0.125221 0.821458 0.556352
vn -0.336162 0.544461 0.768477
vn -0.217626 0.872869 0.436736
vn -0.780349 0.625169 0.014824
vn -0.147768 0.986702 0.067701
vn -0.666772 0.638167 -0.384914
vn -0.048418 0.990432 -0.129229
vn 0.007520 0.544466 -0.838749
vn 0.018268 0.870772 -0.491347
vn 0.114358 0.551433 -0.826343
vn 0.074741 0.840901 -0.536003
vn 0.402145 0.585797 -0.703648
vn 0.262974 0.850122 -0.456221
vn 0.681607 0.615340 -0.395940
vn 0.449362 0.854812 -0.259559
vn 0.059653 0.998183 0.008545
vn -0.681307 0.594150 0.427559
vn -0.575322 0.737009 0.354714
vn -0.551417 0.833408 0.037025
vn -0.417439 0.862322 -0.286609
vn -0.199403 0.779194 -0.594218
vn -0.289050 0.616482 -0.732393
vt 0.928725 0.252475
vt 0.995050 0.500000
vt 0.995050 0.500000
vt 0.928725 0.252475
vt 0.500000 0.500000
vt 0.747525 0.071275
vt 0.747525 0.071275
vt 0.500000 0.004950
vt 0.500000 0.004950
vt 0.252475 0.071275
vt 0.252475 0.071275
vt 0.071275 0.252475
vt 0.071275 0.252475
vt 0.004950 0.500000
vt 0.071275 0.252475
vt 0.071275 0.252475
vt 0.004950 0.500000
vt 0.004950 0.500000
vt 0.071275 0.747525
vt 0.071275 0.747525
vt 0.071275 0.747525
vt 0.252475 0.928725
vt 0.252475 0.928725
vt 0.252475 0.928725
vt 0.500000 0.995049
vt 0.252475 0.928725
vt 0.500000 0.995049
vt 0.747525 0.928725
vt 0.747525 0.928725
vt 0.928725 0.747525
vt 0.928725 0.747525
g Stain
usemtl Material3
f 3/1/3 1/2/1 2/3/2 4/4/4 
f 4/4/4 2/3/2 25/5/25 
f 5/6/5 3/1/3 4/4/4 6/7/6 
f 6/7/6 4/4/4 25/5/25 
f 7/8/7 5/6/5 6/7/6 8/9/8 
f 8/9/8 6/7/6 25/5/25 
f 9/10/9 7/8/7 8/9/8 10/11/10 
f 10/11/10 8/9/8 25/5/25 
f 11/12/11 9/10/9 10/11/10 12/13/12 
f 12/13/12 10/11/10 25/5/25 
f 13/14/13 26/15/26 27/16/27 28/17/28 
f 14/18/14 12/13/12 25/5/25 
f 15/19/15 13/14/13 28/17/28 29/20/29 
f 16/21/16 14/18/14 25/5/25 
f 31/22/31 15/19/15 29/20/29 30/23/30 
f 18/24/18 16/21/16 25/5/25 
f 19/25/19 17/26/17 18/24/18 20/27/20 
f 20/27/20 18/24/18 25/5/25 
f 21/28/21 19/25/19 20/27/20 22/29/22 
f 22/29/22 20/27/20 25/5/25 
f 23/30/23 21/28/21 22/29/22 24/31/24 
f 24/31/24 22/29/22 25/5/25 
f 1/2/1 23/30/23 24/31/24 2/3/2 
f 2/3/2 24/31/24 25/5/25 
f 11/12/11 12/13/12 27/16/27 26/15/26 
f 12/13/12 14/18/14 28/17/28 27/16/27 
f 14/18/14 16/21/16 29/20/29 28/17/28 
f 16/21/16 18/24/18 30/23/30 29/20/29 
f 18/24/18 17/26/17 31/22/31 30/23/30 
